<?xml version="1.0" encoding="UTF-8" standalone="no"?>
<svg
   xmlns:dc="http://purl.org/dc/elements/1.1/"
   xmlns:cc="http://creativecommons.org/ns#"
   xmlns:rdf="http://www.w3.org/1999/02/22-rdf-syntax-ns#"
   xmlns:svg="http://www.w3.org/2000/svg"
   xmlns="http://www.w3.org/2000/svg"
   xmlns:sodipodi="http://sodipodi.sourceforge.net/DTD/sodipodi-0.dtd"
   xmlns:inkscape="http://www.inkscape.org/namespaces/inkscape"
   version="1.1"
   id="svg2"
   viewBox="0 0 138.31981 138.31982"
   height="36.597118mm"
   width="36.597118mm"
   sodipodi:docname="ADA_logo.svg"
   inkscape:version="0.92.2 5c3e80d, 2017-08-06">
  <sodipodi:namedview
     pagecolor="#ffffff"
     bordercolor="#666666"
     borderopacity="1"
     objecttolerance="10"
     gridtolerance="10"
     guidetolerance="10"
     inkscape:pageopacity="0"
     inkscape:pageshadow="2"
     inkscape:window-width="1272"
     inkscape:window-height="652"
     id="namedview877"
     showgrid="false"
     inkscape:zoom="0.76609525"
     inkscape:cx="169.69169"
     inkscape:cy="64.549257"
     inkscape:window-x="47"
     inkscape:window-y="47"
     inkscape:window-maximized="0"
     inkscape:current-layer="layer1"
     fit-margin-top="0"
     fit-margin-left="0"
     fit-margin-right="0"
     fit-margin-bottom="0" />
  <defs
     id="defs4" />
  <metadata
     id="metadata7">
    <rdf:RDF>
      <cc:Work
         rdf:about="">
        <dc:format>image/svg+xml</dc:format>
        <dc:type
           rdf:resource="http://purl.org/dc/dcmitype/StillImage" />
        <dc:title></dc:title>
      </cc:Work>
    </rdf:RDF>
  </metadata>
  <g
     transform="translate(-42.967018,-526.61334)"
     id="layer1">
    <g
       aria-label="ADA"
       style="font-style:normal;font-variant:normal;font-weight:bold;font-stretch:normal;line-height:0%;font-family:'Liberation Mono';-inkscape-font-specification:'Liberation Mono, Bold';text-align:start;letter-spacing:0px;word-spacing:0px;writing-mode:lr-tb;text-anchor:start;fill:#000000;fill-opacity:1;stroke:none;stroke-width:1px;stroke-linecap:butt;stroke-linejoin:miter;stroke-opacity:1"
       id="text4136">
      <path
         d="m 94.153297,615.534 h -8.613281 l -2.695312,-9.66797 H 69.485329 L 66.790016,615.534 H 58.147438 L 71.125954,576.01251 H 81.204079 Z M 76.165016,581.34454 q -0.234375,1.23047 -0.878906,3.69141 -0.615234,2.43164 -3.984375,14.32617 h 9.726562 q -3.427734,-12.07031 -4.042968,-14.44336 -0.585938,-2.37304 -0.820313,-3.57422 z"
         style="font-style:normal;font-variant:normal;font-weight:bold;font-stretch:normal;font-size:60px;line-height:125%;font-family:'Liberation Mono';-inkscape-font-specification:'Liberation Mono, Bold';text-align:start;writing-mode:lr-tb;text-anchor:start"
         id="path975"
         inkscape:connector-curvature="0" />
      <path
         d="m 127.78611,595.46564 q 0,9.66797 -4.51172,14.88281 -4.51172,5.18555 -12.86133,5.18555 H 98.079079 v -39.52149 h 10.576171 q 9.60938,0 14.35547,4.83399 4.77539,4.80468 4.77539,14.61914 z m -8.70117,0 q 0,-6.65039 -2.51953,-9.69727 -2.49024,-3.07617 -8.05664,-3.07617 h -1.78711 v 26.16211 h 2.98828 q 9.375,0 9.375,-13.38867 z"
         style="font-style:normal;font-variant:normal;font-weight:bold;font-stretch:normal;font-size:60px;line-height:125%;font-family:'Liberation Mono';-inkscape-font-specification:'Liberation Mono, Bold';text-align:start;writing-mode:lr-tb;text-anchor:start"
         id="path977"
         inkscape:connector-curvature="0" />
      <path
         d="m 166.10642,615.534 h -8.61328 l -2.69531,-9.66797 h -13.35938 l -2.69531,9.66797 h -8.64258 l 12.97852,-39.52149 h 10.07812 z m -17.98828,-34.18946 q -0.23437,1.23047 -0.87891,3.69141 -0.61523,2.43164 -3.98437,14.32617 h 9.72656 q -3.42773,-12.07031 -4.04297,-14.44336 -0.58593,-2.37304 -0.82031,-3.57422 z"
         style="font-style:normal;font-variant:normal;font-weight:bold;font-stretch:normal;font-size:60px;line-height:125%;font-family:'Liberation Mono';-inkscape-font-specification:'Liberation Mono, Bold';text-align:start;writing-mode:lr-tb;text-anchor:start"
         id="path979"
         inkscape:connector-curvature="0" />
    </g>
    <circle
       r="65.659912"
       cy="595.77325"
       cx="112.12693"
       id="path4140"
       style="fill:none;stroke:#000000;stroke-width:7;stroke-miterlimit:4;stroke-dasharray:none;stroke-opacity:1" />
  </g>
</svg>
